[gd_scene load_steps=3 format=2]

[ext_resource path="res://Brick.gd" type="Script" id=1]

[sub_resource type="RectangleShape2D" id=1]

[node name="Brick1" type="StaticBody2D"]
scale = Vector2( 9.6, 1.5 )
script = ExtResource( 1 )
__meta__ = {
"_edit_group_": true
}

[node name="CollisionShape2D" type="CollisionShape2D" parent="."]
shape = SubResource( 1 )

[node name="ColorRect" type="ColorRect" parent="."]
offset_left = -10.0
offset_top = -10.0
offset_right = 10.0
offset_bottom = 10.0
color = Color( 0.596078, 0, 0, 1 )
__meta__ = {
"_edit_use_anchors_": false
}
